{
	"tracks": {
		"href": "https://api.spotify.com/v1/search?query=melodic+metalcore&type=track&offset=0&limit=1",
		"items": [
			{
				"album": {
					"album_type": "single",
					"artists": [
						{
							"external_urls": {
								"spotify": "https://open.spotify.com/artist/4olk2DDoPvzAJlJBonZFHk"
							},
							"href": "https://api.spotify.com/v1/artists/4olk2DDoPvzAJlJBonZFHk",
							"id": "4olk2DDoPvzAJlJBonZFHk",
							"name": "Devour the Day",
							"type": "artist",
							"uri": "spotify:artist:4olk2DDoPvzAJlJBonZFHk"
						},
						{
							"external_urls": {
								"spotify": "https://open.spotify.com/artist/1d5wNTZ8WZYE5WuXXjug9w"
							},
							"href": "https://api.spotify.com/v1/artists/1d5wNTZ8WZYE5WuXXjug9w",
							"id": "1d5wNTZ8WZYE5WuXXjug9w",
							"name": "Egypt Central",
							"type": "artist",
							"uri": "spotify:artist:1d5wNTZ8WZYE5WuXXjug9w"
						}
					],
					"available_markets": [
						"AR",
						"AU",
						"AT",
						"BE",
						"BO",
						"BR",
						"BG",
						"CA",
						"CL",
						"CO",
						"CR",
						"CY",
						"CZ",
						"DK",
						"DO",
						"DE",
						"EC",
						"EE",
						"SV",
						"FI",
						"FR",
						"GR",
						"GT",
						"HN",
						"HK",
						"HU",
						"IS",
						"IE",
						"IT",
						"LV",
						"LT",
						"LU",
						"MY",
						"MT",
						"MX",
						"NL",
						"NZ",
						"NI",
						"NO",
						"PA",
						"PY",
						"PE",
						"PH",
						"PL",
						"PT",
						"SG",
						"SK",
						"ES",
						"SE",
						"CH",
						"TW",
						"TR",
						"UY",
						"US",
						"GB",
						"AD",
						"LI",
						"MC",
						"ID",
						"JP",
						"TH",
						"VN",
						"RO",
						"IL",
						"ZA",
						"SA",
						"AE",
						"BH",
						"QA",
						"OM",
						"KW",
						"EG",
						"MA",
						"DZ",
						"TN",
						"LB",
						"JO",
						"PS",
						"IN",
						"BY",
						"KZ",
						"MD",
						"UA",
						"AL",
						"BA",
						"HR",
						"ME",
						"MK",
						"RS",
						"SI",
						"KR",
						"BD",
						"PK",
						"LK",
						"GH",
						"KE",
						"NG",
						"TZ",
						"UG",
						"AG",
						"AM",
						"BS",
						"BB",
						"BZ",
						"BT",
						"BW",
						"BF",
						"CV",
						"CW",
						"DM",
						"FJ",
						"GM",
						"GE",
						"GD",
						"GW",
						"GY",
						"HT",
						"JM",
						"KI",
						"LS",
						"LR",
						"MW",
						"MV",
						"ML",
						"MH",
						"FM",
						"NA",
						"NR",
						"NE",
						"PW",
						"PG",
						"PR",
						"WS",
						"SM",
						"ST",
						"SN",
						"SC",
						"SL",
						"SB",
						"KN",
						"LC",
						"VC",
						"SR",
						"TL",
						"TO",
						"TT",
						"TV",
						"VU",
						"AZ",
						"BN",
						"BI",
						"KH",
						"CM",
						"TD",
						"KM",
						"GQ",
						"SZ",
						"GA",
						"GN",
						"KG",
						"LA",
						"MO",
						"MR",
						"MN",
						"NP",
						"RW",
						"TG",
						"UZ",
						"ZW",
						"BJ",
						"MG",
						"MU",
						"MZ",
						"AO",
						"CI",
						"DJ",
						"ZM",
						"CD",
						"CG",
						"IQ",
						"LY",
						"TJ",
						"VE",
						"ET",
						"XK"
					],
					"external_urls": {
						"spotify": "https://open.spotify.com/album/0yORpcEGJTEJssJRNdE04h"
					},
					"href": "https://api.spotify.com/v1/albums/0yORpcEGJTEJssJRNdE04h",
					"id": "0yORpcEGJTEJssJRNdE04h",
					"images": [
						{
							"height": 640,
							"url": "https://i.scdn.co/image/ab67616d0000b273d95c034a197297edecbe2c2e",
							"width": 640
						},
						{
							"height": 300,
							"url": "https://i.scdn.co/image/ab67616d00001e02d95c034a197297edecbe2c2e",
							"width": 300
						},
						{
							"height": 64,
							"url": "https://i.scdn.co/image/ab67616d00004851d95c034a197297edecbe2c2e",
							"width": 64
						}
					],
					"name": "Nobody Owns Me",
					"release_date": "2024-02-09",
					"release_date_precision": "day",
					"total_tracks": 1,
					"type": "album",
					"uri": "spotify:album:0yORpcEGJTEJssJRNdE04h"
				},
				"artists": [
					{
						"external_urls": {
							"spotify": "https://open.spotify.com/artist/4olk2DDoPvzAJlJBonZFHk"
						},
						"href": "https://api.spotify.com/v1/artists/4olk2DDoPvzAJlJBonZFHk",
						"id": "4olk2DDoPvzAJlJBonZFHk",
						"name": "Devour the Day",
						"type": "artist",
						"uri": "spotify:artist:4olk2DDoPvzAJlJBonZFHk"
					},
					{
						"external_urls": {
							"spotify": "https://open.spotify.com/artist/1d5wNTZ8WZYE5WuXXjug9w"
						},
						"href": "https://api.spotify.com/v1/artists/1d5wNTZ8WZYE5WuXXjug9w",
						"id": "1d5wNTZ8WZYE5WuXXjug9w",
						"name": "Egypt Central",
						"type": "artist",
						"uri": "spotify:artist:1d5wNTZ8WZYE5WuXXjug9w"
					}
				],
				"available_markets": [
					"AR",
					"AU",
					"AT",
					"BE",
					"BO",
					"BR",
					"BG",
					"CA",
					"CL",
					"CO",
					"CR",
					"CY",
					"CZ",
					"DK",
					"DO",
					"DE",
					"EC",
					"EE",
					"SV",
					"FI",
					"FR",
					"GR",
					"GT",
					"HN",
					"HK",
					"HU",
					"IS",
					"IE",
					"IT",
					"LV",
					"LT",
					"LU",
					"MY",
					"MT",
					"MX",
					"NL",
					"NZ",
					"NI",
					"NO",
					"PA",
					"PY",
					"PE",
					"PH",
					"PL",
					"PT",
					"SG",
					"SK",
					"ES",
					"SE",
					"CH",
					"TW",
					"TR",
					"UY",
					"US",
					"GB",
					"AD",
					"LI",
					"MC",
					"ID",
					"JP",
					"TH",
					"VN",
					"RO",
					"IL",
					"ZA",
					"SA",
					"AE",
					"BH",
					"QA",
					"OM",
					"KW",
					"EG",
					"MA",
					"DZ",
					"TN",
					"LB",
					"JO",
					"PS",
					"IN",
					"BY",
					"KZ",
					"MD",
					"UA",
					"AL",
					"BA",
					"HR",
					"ME",
					"MK",
					"RS",
					"SI",
					"KR",
					"BD",
					"PK",
					"LK",
					"GH",
					"KE",
					"NG",
					"TZ",
					"UG",
					"AG",
					"AM",
					"BS",
					"BB",
					"BZ",
					"BT",
					"BW",
					"BF",
					"CV",
					"CW",
					"DM",
					"FJ",
					"GM",
					"GE",
					"GD",
					"GW",
					"GY",
					"HT",
					"JM",
					"KI",
					"LS",
					"LR",
					"MW",
					"MV",
					"ML",
					"MH",
					"FM",
					"NA",
					"NR",
					"NE",
					"PW",
					"PG",
					"PR",
					"WS",
					"SM",
					"ST",
					"SN",
					"SC",
					"SL",
					"SB",
					"KN",
					"LC",
					"VC",
					"SR",
					"TL",
					"TO",
					"TT",
					"TV",
					"VU",
					"AZ",
					"BN",
					"BI",
					"KH",
					"CM",
					"TD",
					"KM",
					"GQ",
					"SZ",
					"GA",
					"GN",
					"KG",
					"LA",
					"MO",
					"MR",
					"MN",
					"NP",
					"RW",
					"TG",
					"UZ",
					"ZW",
					"BJ",
					"MG",
					"MU",
					"MZ",
					"AO",
					"CI",
					"DJ",
					"ZM",
					"CD",
					"CG",
					"IQ",
					"LY",
					"TJ",
					"VE",
					"ET",
					"XK"
				],
				"disc_number": 1,
				"duration_ms": 195389,
				"explicit": true,
				"external_ids": {
					"isrc": "QZSYP2327897"
				},
				"external_urls": {
					"spotify": "https://open.spotify.com/track/4Ci2Kjrsngzr2yicukgBzY"
				},
				"href": "https://api.spotify.com/v1/tracks/4Ci2Kjrsngzr2yicukgBzY",
				"id": "4Ci2Kjrsngzr2yicukgBzY",
				"is_local": false,
				"name": "Nobody Owns Me",
				"popularity": 40,
				"preview_url": "https://p.scdn.co/mp3-preview/fc5a93e49ee9410699030c87d050d822d440fabc?cid=bf9fd0131e0a4c56ab5ec69dc87befc3",
				"track_number": 1,
				"type": "track",
				"uri": "spotify:track:4Ci2Kjrsngzr2yicukgBzY"
			}
		],
		"limit": 1,
		"next": "https://api.spotify.com/v1/search?query=melodic+metalcore&type=track&offset=1&limit=1",
		"offset": 0,
		"previous": null,
		"total": 807
	}
}